[
		{
			"id": 1,
			"studentId":"SE-001",
			"name":"Prayuth",
			"surname":"The minister",
			"gpa":3.59,
			"image":"https://s3-ap-southeast-1.amazonaws.com/se331/pics/tu.jpg",
			"featured":false,
			"penAmount":15
		},
		{
			"id": 2,
			"studentId":"SE-002",
			"name":"Jurgen",
			"surname":"Kloop",
			"gpa":2.15,
			"image":"https://s3-ap-southeast-1.amazonaws.com/se331/pics/Kloop.gif",			
			"featured":true,
			"penAmount":2
		},
		{
			"id": 3,
			"studentId":"SE-003",
			"name":"Mitsuha",
			"surname":"Miyamizu",
			"gpa":2.15,
			"image":"https://s3-ap-southeast-1.amazonaws.com/se331/pics/mitsuha.gif",
			"featured":true,
			"penAmount":2
		}
]